<?xml version="1.0" encoding="UTF-8"?>
<session version="1.0">
<refactoring comment="Rename type &apos;Display&apos; to &apos;UImanager&apos;&#x0A;- Original project: &apos;Ivanhoe&apos;&#x0A;- Original element: &apos;Display&apos;&#x0A;- Renamed element: &apos;UImanager&apos;&#x0A;- Update references to refactored element&#x0A;- Update textual occurrences in comments and strings" description="Rename type &apos;Display&apos;" flags="589830" id="org.eclipse.jdt.ui.rename.type" input="/src&lt;{Display.java[Display" matchStrategy="1" name="UImanager" qualified="false" references="true" similarDeclarations="false" stamp="1456060543085" textual="false" version="1.0"/>
</session>